{
  "project_info": {
    "project_number": "62101636634",
    "firebase_url": "https://gigakorea.firebaseio.com",
    "project_id": "gigakorea",
    "storage_bucket": "gigakorea.appspot.com"
  },
  "client": [
    {
      "client_info": {
        "mobilesdk_app_id": "1:62101636634:android:5b4bbce915a2297c",
        "android_client_info": {
          "package_name": "com.giga.shopping"
        }
      },
      "oauth_client": [
        {
          "client_id": "62101636634-sc66uhjj17njuhqdhido0730aoc2oarc.apps.googleusercontent.com",
          "client_type": 3
        }
      ],
      "api_key": [
        {
          "current_key": "AIzaSyCBPwFgG3IvfplfsbctmT9Hob77AuUceB4"
        }
      ],
      "services": {
        "analytics_service": {
          "status": 1
        },
        "appinvite_service": {
          "status": 1,
          "other_platform_oauth_client": []
        },
        "ads_service": {
          "status": 2
        }
      }
    }
  ],
  "configuration_version": "1"
}